{
    "photos": {
        "page": 1,
        "pages": 6951,
        "perpage": 25,
        "total": "173761",
        "photo": [
            {
                "id": "50251298218",
                "owner": "186626151@N03",
                "secret": "d9170f3837",
                "server": "65535",
                "farm": 66,
                "title": "Mia Halloween Headband Ad GG",
                "ispublic": 1,
                "isfriend": 0,
                "isfamily": 0,
                "url_sq": "https:\/\/live.staticflickr.com\/65535\/50251298218_d9170f3837_s.jpg",
                "height_sq": 75,
                "width_sq": 75,
                "url_o": "https:\/\/live.staticflickr.com\/65535\/50251298218_a3fff30e84_o.jpg",
                "height_o": 1024,
                "width_o": 1024
            },
            {
                "id": "50251911501",
                "owner": "142333843@N07",
                "secret": "6439f68540",
                "server": "65535",
                "farm": 66,
                "title": "Designers & Creators, Let's Get Spooky!",
                "ispublic": 1,
                "isfriend": 0,
                "isfamily": 0,
                "url_sq": "https:\/\/live.staticflickr.com\/65535\/50251911501_6439f68540_s.jpg",
                "height_sq": 75,
                "width_sq": 75,
                "url_o": "https:\/\/live.staticflickr.com\/65535\/50251911501_d1e7e7c6f6_o.png",
                "height_o": 684,
                "width_o": 517
            },
            {
                "id": "50251049103",
                "owner": "30478819@N08",
                "secret": "b510b7595e",
                "server": "65535",
                "farm": 66,
                "title": "Halloween pumpkin decorations on a orange background",
                "ispublic": 1,
                "isfriend": 0,
                "isfamily": 0,
                "url_sq": "https:\/\/live.staticflickr.com\/65535\/50251049103_b510b7595e_s.jpg",
                "height_sq": 75,
                "width_sq": 75,
                "url_o": "https:\/\/live.staticflickr.com\/65535\/50251049103_1f48342eb0_o.jpg",
                "height_o": 3485,
                "width_o": 5202
            },
            {
                "id": "50251048948",
                "owner": "30478819@N08",
                "secret": "96eb64935a",
                "server": "65535",
                "farm": 66,
                "title": "Pumpkin with Autumn text on orange background",
                "ispublic": 1,
                "isfriend": 0,
                "isfamily": 0,
                "url_sq": "https:\/\/live.staticflickr.com\/65535\/50251048948_96eb64935a_s.jpg",
                "height_sq": 75,
                "width_sq": 75,
                "url_o": "https:\/\/live.staticflickr.com\/65535\/50251048948_85405164d8_o.jpg",
                "height_o": 3127,
                "width_o": 4719
            },
            {
                "id": "50251048823",
                "owner": "30478819@N08",
                "secret": "b5c35118de",
                "server": "65535",
                "farm": 66,
                "title": "Pumpkin with Autumn text",
                "ispublic": 1,
                "isfriend": 0,
                "isfamily": 0,
                "url_sq": "https:\/\/live.staticflickr.com\/65535\/50251048823_b5c35118de_s.jpg",
                "height_sq": 75,
                "width_sq": 75,
                "url_o": "https:\/\/live.staticflickr.com\/65535\/50251048823_1a9749f2e5_o.jpg",
                "height_o": 3529,
                "width_o": 5303
            },
            {
                "id": "50251519081",
                "owner": "64411615@N07",
                "secret": "238e30a0b8",
                "server": "65535",
                "farm": 66,
                "title": "Pool days",
                "ispublic": 1,
                "isfriend": 0,
                "isfamily": 0,
                "url_sq": "https:\/\/live.staticflickr.com\/65535\/50251519081_238e30a0b8_s.jpg",
                "height_sq": 75,
                "width_sq": 75
            },
            {
                "id": "50251228507",
                "owner": "33168201@N02",
                "secret": "4bfa7c68bd",
                "server": "65535",
                "farm": 66,
                "title": "Zombie demon in haunted house",
                "ispublic": 1,
                "isfriend": 0,
                "isfamily": 0,
                "url_sq": "https:\/\/live.staticflickr.com\/65535\/50251228507_4bfa7c68bd_s.jpg",
                "height_sq": 75,
                "width_sq": 75,
                "url_o": "https:\/\/live.staticflickr.com\/65535\/50251228507_1789814228_o.jpg",
                "height_o": 2892,
                "width_o": 3908
            },
            {
                "id": "50251033661",
                "owner": "33168201@N02",
                "secret": "47a3c11e91",
                "server": "65535",
                "farm": 66,
                "title": "Apple pumpkin",
                "ispublic": 1,
                "isfriend": 0,
                "isfamily": 0,
                "url_sq": "https:\/\/live.staticflickr.com\/65535\/50251033661_47a3c11e91_s.jpg",
                "height_sq": 75,
                "width_sq": 75,
                "url_o": "https:\/\/live.staticflickr.com\/65535\/50251033661_81d2644739_o.jpg",
                "height_o": 3147,
                "width_o": 4587
            },
            {
                "id": "50251028786",
                "owner": "33168201@N02",
                "secret": "778e14f120",
                "server": "65535",
                "farm": 66,
                "title": "Frankenstien's Monster",
                "ispublic": 1,
                "isfriend": 0,
                "isfamily": 0,
                "url_sq": "https:\/\/live.staticflickr.com\/65535\/50251028786_778e14f120_s.jpg",
                "height_sq": 75,
                "width_sq": 75,
                "url_o": "https:\/\/live.staticflickr.com\/65535\/50251028786_d03b913104_o.jpg",
                "height_o": 2892,
                "width_o": 4059
            },
            {
                "id": "50251026701",
                "owner": "33168201@N02",
                "secret": "6fbcdc78cb",
                "server": "65535",
                "farm": 66,
                "title": "Creepy ghost face in a haunted house",
                "ispublic": 1,
                "isfriend": 0,
                "isfamily": 0,
                "url_sq": "https:\/\/live.staticflickr.com\/65535\/50251026701_6fbcdc78cb_s.jpg",
                "height_sq": 75,
                "width_sq": 75,
                "url_o": "https:\/\/live.staticflickr.com\/65535\/50251026701_806c9ca7bf_o.jpg",
                "height_o": 2787,
                "width_o": 4044
            },
            {
                "id": "50250374003",
                "owner": "33168201@N02",
                "secret": "0a2d910bf3",
                "server": "65535",
                "farm": 66,
                "title": "Ghost lights for Halloween",
                "ispublic": 1,
                "isfriend": 0,
                "isfamily": 0,
                "url_sq": "https:\/\/live.staticflickr.com\/65535\/50250374003_0a2d910bf3_s.jpg",
                "height_sq": 75,
                "width_sq": 75,
                "url_o": "https:\/\/live.staticflickr.com\/65535\/50250374003_2025676cfe_o.jpg",
                "height_o": 2412,
                "width_o": 3482
            },
            {
                "id": "50251021276",
                "owner": "33168201@N02",
                "secret": "dc0c023f10",
                "server": "65535",
                "farm": 66,
                "title": "Ghost lights for Halloween",
                "ispublic": 1,
                "isfriend": 0,
                "isfamily": 0,
                "url_sq": "https:\/\/live.staticflickr.com\/65535\/50251021276_dc0c023f10_s.jpg",
                "height_sq": 75,
                "width_sq": 75,
                "url_o": "https:\/\/live.staticflickr.com\/65535\/50251021276_a61d07ed19_o.jpg",
                "height_o": 3021,
                "width_o": 4398
            },
            {
                "id": "50251018696",
                "owner": "33168201@N02",
                "secret": "2d708cbf5c",
                "server": "65535",
                "farm": 66,
                "title": "Ghost straw in glass of fizzy cola with bokeh party lights in the background",
                "ispublic": 1,
                "isfriend": 0,
                "isfamily": 0,
                "url_sq": "https:\/\/live.staticflickr.com\/65535\/50251018696_2d708cbf5c_s.jpg",
                "height_sq": 75,
                "width_sq": 75,
                "url_o": "https:\/\/live.staticflickr.com\/65535\/50251018696_5aca3b5a89_o.jpg",
                "height_o": 3147,
                "width_o": 4587
            },
            {
                "id": "50250364183",
                "owner": "33168201@N02",
                "secret": "9ca2e7db5d",
                "server": "65535",
                "farm": 66,
                "title": "Halloween - See no evil, hear no evil, speak no evil",
                "ispublic": 1,
                "isfriend": 0,
                "isfamily": 0,
                "url_sq": "https:\/\/live.staticflickr.com\/65535\/50250364183_9ca2e7db5d_s.jpg",
                "height_sq": 75,
                "width_sq": 75,
                "url_o": "https:\/\/live.staticflickr.com\/65535\/50250364183_6c82af4225_o.jpg",
                "height_o": 3084,
                "width_o": 4413
            },
            {
                "id": "50250352858",
                "owner": "33168201@N02",
                "secret": "315cabed29",
                "server": "65535",
                "farm": 66,
                "title": "Halloween pumpkin on wooden surface with fairy lights in the background",
                "ispublic": 1,
                "isfriend": 0,
                "isfamily": 0,
                "url_sq": "https:\/\/live.staticflickr.com\/65535\/50250352858_315cabed29_s.jpg",
                "height_sq": 75,
                "width_sq": 75,
                "url_o": "https:\/\/live.staticflickr.com\/65535\/50250352858_f05dbce055_o.jpg",
                "height_o": 3147,
                "width_o": 4587
            },
            {
                "id": "50250998781",
                "owner": "33168201@N02",
                "secret": "559344a426",
                "server": "65535",
                "farm": 66,
                "title": "Laughing pumpkin outdoors",
                "ispublic": 1,
                "isfriend": 0,
                "isfamily": 0,
                "url_sq": "https:\/\/live.staticflickr.com\/65535\/50250998781_559344a426_s.jpg",
                "height_sq": 75,
                "width_sq": 75,
                "url_o": "https:\/\/live.staticflickr.com\/65535\/50250998781_ff522f5be9_o.jpg",
                "height_o": 3147,
                "width_o": 4587
            },
            {
                "id": "50250345808",
                "owner": "33168201@N02",
                "secret": "f760605095",
                "server": "65535",
                "farm": 66,
                "title": "Leydis as Zombie going down escalators",
                "ispublic": 1,
                "isfriend": 0,
                "isfamily": 0,
                "url_sq": "https:\/\/live.staticflickr.com\/65535\/50250345808_f760605095_s.jpg",
                "height_sq": 75,
                "width_sq": 75,
                "url_o": "https:\/\/live.staticflickr.com\/65535\/50250345808_016c51d05c_o.jpg",
                "height_o": 3147,
                "width_o": 4587
            },
            {
                "id": "50250342558",
                "owner": "33168201@N02",
                "secret": "8d6ace59d9",
                "server": "65535",
                "farm": 66,
                "title": "Leydis as zombie on escalator",
                "ispublic": 1,
                "isfriend": 0,
                "isfamily": 0,
                "url_sq": "https:\/\/live.staticflickr.com\/65535\/50250342558_8d6ace59d9_s.jpg",
                "height_sq": 75,
                "width_sq": 75,
                "url_o": "https:\/\/live.staticflickr.com\/65535\/50250342558_2030bd88cd_o.jpg",
                "height_o": 3147,
                "width_o": 4587
            },
            {
                "id": "50251181167",
                "owner": "33168201@N02",
                "secret": "b69d66ca8b",
                "server": "65535",
                "farm": 66,
                "title": "Mini Halloween Pumpkin",
                "ispublic": 1,
                "isfriend": 0,
                "isfamily": 0,
                "url_sq": "https:\/\/live.staticflickr.com\/65535\/50251181167_b69d66ca8b_s.jpg",
                "height_sq": 75,
                "width_sq": 75,
                "url_o": "https:\/\/live.staticflickr.com\/65535\/50251181167_4ca54df088_o.jpg",
                "height_o": 3147,
                "width_o": 4587
            },
            {
                "id": "50250335533",
                "owner": "33168201@N02",
                "secret": "150bea9eb9",
                "server": "65535",
                "farm": 66,
                "title": "Small pumpkin light decorations for a Halloween party",
                "ispublic": 1,
                "isfriend": 0,
                "isfamily": 0,
                "url_sq": "https:\/\/live.staticflickr.com\/65535\/50250335533_150bea9eb9_s.jpg",
                "height_sq": 75,
                "width_sq": 75,
                "url_o": "https:\/\/live.staticflickr.com\/65535\/50250335533_1f65efccbd_o.jpg",
                "height_o": 3147,
                "width_o": 4587
            },
            {
                "id": "50251174642",
                "owner": "33168201@N02",
                "secret": "aafdfb24cc",
                "server": "65535",
                "farm": 66,
                "title": "Spooky science props in haunted house",
                "ispublic": 1,
                "isfriend": 0,
                "isfamily": 0,
                "url_sq": "https:\/\/live.staticflickr.com\/65535\/50251174642_aafdfb24cc_s.jpg",
                "height_sq": 75,
                "width_sq": 75,
                "url_o": "https:\/\/live.staticflickr.com\/65535\/50251174642_522705e634_o.jpg",
                "height_o": 2628,
                "width_o": 4019
            },
            {
                "id": "50250979311",
                "owner": "33168201@N02",
                "secret": "365a2c2c7d",
                "server": "65535",
                "farm": 66,
                "title": "Small pumpkin light decoration for a Halloween party",
                "ispublic": 1,
                "isfriend": 0,
                "isfamily": 0,
                "url_sq": "https:\/\/live.staticflickr.com\/65535\/50250979311_365a2c2c7d_s.jpg",
                "height_sq": 75,
                "width_sq": 75,
                "url_o": "https:\/\/live.staticflickr.com\/65535\/50250979311_931dd56f9d_o.jpg",
                "height_o": 3147,
                "width_o": 4587
            },
            {
                "id": "50250975486",
                "owner": "33168201@N02",
                "secret": "af3bbaaab4",
                "server": "65535",
                "farm": 66,
                "title": "Halloween pumpkin on a shelf at home with fairy lights in the background",
                "ispublic": 1,
                "isfriend": 0,
                "isfamily": 0,
                "url_sq": "https:\/\/live.staticflickr.com\/65535\/50250975486_af3bbaaab4_s.jpg",
                "height_sq": 75,
                "width_sq": 75,
                "url_o": "https:\/\/live.staticflickr.com\/65535\/50250975486_0dcf32d805_o.jpg",
                "height_o": 3147,
                "width_o": 4587
            },
            {
                "id": "50251160137",
                "owner": "33168201@N02",
                "secret": "5ae8e329b3",
                "server": "65535",
                "farm": 66,
                "title": "Purple flowers in graveyard",
                "ispublic": 1,
                "isfriend": 0,
                "isfamily": 0,
                "url_sq": "https:\/\/live.staticflickr.com\/65535\/50251160137_5ae8e329b3_s.jpg",
                "height_sq": 75,
                "width_sq": 75,
                "url_o": "https:\/\/live.staticflickr.com\/65535\/50251160137_01a9033d14_o.jpg",
                "height_o": 3147,
                "width_o": 4587
            },
            {
                "id": "50251150952",
                "owner": "33168201@N02",
                "secret": "2c9a249f4e",
                "server": "65535",
                "farm": 66,
                "title": "Red apple carved to look like pumpkin by sunset",
                "ispublic": 1,
                "isfriend": 0,
                "isfamily": 0,
                "url_sq": "https:\/\/live.staticflickr.com\/65535\/50251150952_2c9a249f4e_s.jpg",
                "height_sq": 75,
                "width_sq": 75,
                "url_o": "https:\/\/live.staticflickr.com\/65535\/50251150952_446307ee3b_o.jpg",
                "height_o": 2985,
                "width_o": 4341
            }
        ]
    },
    "stat": "ok"
}
